DataFiles/tekcsv/default_scope.csv

Model,DPO4034,,,
Firmware Version,2.58,,,
,,,,
Waveform Type,Analog,Analog,Analog,Analog
Point Format,ENV,,,
Horizontal Units,s,,,
Horizontal Scale,100,,,
Horizontal Delay,0,0,0,0
Sample Interval,0.01,,,
Record Length,100000,,,
Gating,0.0% to 100.0%,0.0% to 100.0%,0.0% to 100.0%,0.0% to 100.0%
Probe Attenuation,1,1,1,1
Vertical Units,V,V,V,V
Vertical Offset,0,0,0,0
Vertical Scale,1,2,2,2
Vertical Position,0,0,-2.02,-4.02
Label,,,,
TIME,CH1,CH2,CH3,CH4
-5.00E+02,0,0,0,0
-5.00E+02,0,0,0.2,0.52
-5.00E+02,0,0,0.2,0.2
-5.00E+02,0,0,0.68,0.6
-5.00E+02,0,0,1.56,0.68
-5.00E+02,0,0,0.36,1.16
-5.00E+02,0,0,0.52,1.48
-5.00E+02,0,0,-0.28,1.16
-5.00E+02,0,0,-0.52,1.16
-5.00E+02,0,0,-0.92,1.24
-5.00E+02,0,0,-0.44,0.6
-5.00E+02,0,0,-0.36,0.6
-5.00E+02,0,0,0.2,0.68
-5.00E+02,0,0,0.12,0.28
-5.00E+02,0,0,0.12,0.36
-5.00E+02,0,0,0.12,0.52
-5.00E+02,0,0,-0.2,0.84
-5.00E+02,0,0,-0.68,0.6
-5.00E+02,0,0,0.36,1
-5.00E+02,0,0,-0.2,0.76
-5.00E+02,0,0,-0.2,0.84
-5.00E+02,0,0,-0.76,0.76
-5.00E+02,0,0,0.12,0.44
-5.00E+02,0,0,-0.04,0.52
-5.00E+02,0,0,0.12,0.44
-5.00E+02,0,0,0.2,0.76
-5.00E+02,0,0,-1.08,0.52
-5.00E+02,0,0,-0.68,0.84
-5.00E+02,0,0,-1.24,1
-5.00E+02,0,0,-0.36,0.68
-5.00E+02,0,0,-0.36,0.76
-5.00E+02,0,0,0.36,0.52
-5.00E+02,0,0,0.6,0.44
-5.00E+02,0,0,0.28,0.44
-5.00E+02,0,0,0.68,0.6
-5.00E+02,0,0,1,0.76
-5.00E+02,0,0,0.6,0.68
-5.00E+02,0,0,0.44,0.52
-5.00E+02,0,0,-0.44,0.44
-5.00E+02,0,0,0.2,0.52
-5.00E+02,0,0,-0.44,0.52
-5.00E+02,0,0,0.2,0.52
-5.00E+02,0,0,0.2,0.6
-5.00E+02,0,0,-0.2,0.68
-5.00E+02,0,0,-0.12,0.44
-5.00E+02,0,0,0.2,0.28
-5.00E+02,0,0,1,0.36
-5.00E+02,0,0,1,0.76
-5.00E+02,0,0,-0.12,0.68
-5.00E+02,0,0,-0.28,0.68
-5.00E+02,0,0,0.12,0.76
-4.99E+02,0,0,-0.6,0.28
-4.99E+02,0,0,-0.36,0.76
-4.99E+02,0,0,-0.28,0.36
-4.99E+02,0,0,0.12,0.2
-4.99E+02,0,0,-0.84,0.44
-4.99E+02,0,0,-0.44,0.28
-4.99E+02,0,0,-0.28,1
-4.99E+02,0,0,-0.28,0.76
-4.99E+02,0,0,-0.52,0.52
-4.99E+02,0,0,0.28,0.6
-4.99E+02,0,0,0.04,0.28
-4.99E+02,0,0,-0.36,0.36
-4.99E+02,0,0,-0.28,0.28
-4.99E+02,0,0,-0.04,0.28
-4.99E+02,-0.04,0,0.6,1
-4.99E+02,0.44,0,-0.2,0.36
-4.99E+02,-0.48,0,-0.52,0.36
-4.99E+02,-0.56,0.16,0.2,0.68
-4.99E+02,0.52,-0.56,0.52,0.2
-4.99E+02,0.6,-0.72,-0.84,0.04
-4.99E+02,-1.44,0,0.04,0.28
-4.99E+02,-0.08,0,-0.68,0.12
-4.99E+02,0.32,-1.04,0.04,0.84
-4.99E+02,0.24,-0.48,-0.28,0.6
-4.99E+02,0.08,0.32,0.2,0.44
-4.99E+02,0.12,0.48,0.12,0.52
-4.99E+02,-0.28,-0.56,0.36,1.16
-4.99E+02,-0.28,-0.32,0.84,0.68
-4.99E+02,0.04,-0.88,1.56,0.36
-4.99E+02,0.44,-1.68,1.16,0.76
-4.99E+02,0.72,-1.44,0.44,0.84
-4.99E+02,0.04,0.4,0.44,0.52
-4.99E+02,-0.28,0.24,0.76,0.36
-4.99E+02,0.8,0.24,-0.28,0.28
-4.99E+02,-0.44,-0.08,0.28,0.6
-4.99E+02,-0.16,0,0.36,-0.12
-4.99E+02,-0.24,-0.08,0.12,0.12
-4.99E+02,-0.24,-0.24,0.52,0.6
-4.99E+02,0.76,-0.32,-0.52,0.36
-4.99E+02,-0.76,0.24,-1.16,0.76
-4.99E+02,-0.52,0.08,-0.92,1
-4.99E+02,0.8,-0.32,-0.68,0.52
-4.99E+02,-0.12,-0.56,-0.68,0.76
-4.99E+02,-0.92,0.4,-0.76,0.44
-4.99E+02,-0.6,-0.4,-0.2,0.6
-4.99E+02,0.04,-0.16,1,0.6
-4.99E+02,-0.12,-0.8,0.84,0.6
-4.99E+02,-0.56,-0.16,0.84,0.52
-4.99E+02,0.24,-0.56,0.44,0.12
-4.99E+02,0.88,-0.32,0.76,0.44
-4.99E+02,-0.6,0.32,0.36,0.52
-4.99E+02,-0.8,-0.08,-0.52,0.36
-4.99E+02,-0.12,-0.64,-0.52,0.6
-4.99E+02,-0.28,-0.8,-0.44,0.6
-4.99E+02,-0.12,0.16,-0.6,0.28
-4.99E+02,0.32,0.48,-0.12,0.6
-4.99E+02,0.52,-0.24,0.2,0.6
-4.99E+02,0.48,-0.72,-0.12,0.52
-4.99E+02,-1.28,0.08,-0.52,0.6
-4.99E+02,-0.92,0.72,0.2,0.44
-4.99E+02,-0.28,-0.4,-1.08,0.44
-4.99E+02,-0.4,-0.48,-0.84,0.44
-4.99E+02,0.2,0.88,-0.76,0.2
-4.99E+02,0.6,0.48,0.04,0.28
-4.99E+02,0.44,-0.32,0.28,0.92
-4.99E+02,0.36,-0.08,-0.28,0.36
-4.99E+02,-0.36,-0.08,-0.12,0.28
-4.99E+02,0.4,-0.72,-0.04,0.6
-4.99E+02,0.2,-1.04,0.68,1.08
-4.99E+02,-0.08,-0.08,1.08,0.52
-4.99E+02,0.04,0.64,0.36,0.2
-4.99E+02,0.08,-0.24,0.92,0.52
-4.99E+02,-0.04,-0.32,0.6,0.92
-4.99E+02,0.24,-0.64,0.12,0.28
-4.99E+02,0.68,-0.64,0.6,0.36
-4.99E+02,0.88,-0.64,1.32,0.84
-4.99E+02,1.04,0,0.04,0.44
-4.99E+02,0.16,0.08,-0.04,0.52
-4.99E+02,-0.08,-0.24,0.84,0.36
-4.99E+02,0.6,-0.24,0.36,-0.2
-4.99E+02,0.64,-0.8,-0.04,-0.04
-4.99E+02,0.16,0.24,-0.84,0.04
-4.99E+02,-0.52,0.56,-0.04,0.44
-4.99E+02,0.28,0.24,-0.6,0.52
-4.99E+02,0.04,0.72,-1.48,0.6
-4.99E+02,-0.16,1.2,-2.44,0.44
-4.99E+02,-0.36,0.32,-1.96,0.6
-4.99E+02,-0.12,0.24,-0.92,0.52
-4.99E+02,-1.04,-0.16,-0.2,0.36
-4.99E+02,-0.04,0.88,-0.12,0.12
-4.99E+02,-0.4,0.08,-0.12,0.6
-4.99E+02,-0.64,-0.08,0.28,0.84
-4.99E+02,-0.8,0,0.76,0.6
-4.99E+02,-0.32,0.16,1,0.44
-4.99E+02,0.88,-0.08,0.28,0.6
-4.99E+02,0.52,-0.08,0.28,0.6
-4.99E+02,-0.44,0.24,0.04,0.28
-4.99E+02,0.24,0.08,0.84,0.44
-4.99E+02,0.44,-0.56,-0.28,0.6
-4.99E+02,-0.64,0.4,-0.52,0.36
-4.98E+02,-0.36,0.24,-0.52,0.36
-4.98E+02,-0.2,-0.72,-0.12,0.68
-4.98E+02,-0.16,-0.24,-0.12,0.76
-4.98E+02,-0.64,0.48,-0.6,0.6
-4.98E+02,-1,0.08,-0.04,0.84
-4.98E+02,0,-0.72,0.76,1.08
-4.98E+02,0.8,-0.56,0.68,0.6
-4.98E+02,-0.28,-0.16,0.92,1.16
-4.98E+02,-0.12,1.68,0.68,0.6
-4.98E+02,0.2,0.32,1.32,0.36
-4.98E+02,0.28,-0.56,1.4,0.44
-4.98E+02,-0.4,-0.16,0.36,0.36
-4.98E+02,0,0.96,1.08,0.2
-4.98E+02,0.56,-1.12,0.92,0.68
-4.98E+02,0.52,-0.48,0.28,1.16
-4.98E+02,0.48,0.24,-0.2,0.84
-4.98E+02,-0.08,0.72,0.28,0.68
-4.98E+02,-0.52,-0.08,-0.84,0.84
-4.98E+02,-0.2,0.32,-0.28,0.2
-4.98E+02,0.56,0.4,-0.68,0.36
-4.98E+02,0.16,-0.08,0.28,0.6
-4.98E+02,0.76,0.08,-0.68,0.52
-4.98E+02,-0.68,0,-0.12,1.08
-4.98E+02,-0.48,1.12,0.12,0.76
-4.98E+02,-0.12,-0.48,-0.36,1.16
-4.98E+02,1,-0.64,-0.68,0.68
-4.98E+02,0.88,-1.28,-0.52,0.36
-4.98E+02,0.24,-0.4,-0.68,0.12
-4.98E+02,0.76,-0.32,-0.6,0.04
-4.98E+02,1.2,-0.48,-0.12,0.28
-4.98E+02,1.24,-0.16,-0.6,0.2
-4.98E+02,-0.52,-0.72,0.2,0.92
-4.98E+02,-0.4,0,-0.28,0.92
-4.98E+02,-0.6,-0.96,-0.28,1.64
-4.98E+02,-0.36,-0.64,-0.68,1.08
-4.98E+02,-0.76,-0.48,-0.04,1.4
-4.98E+02,0.8,-0.24,0.36,1.16
-4.98E+02,0.12,0,0.04,0.52
-4.98E+02,-1.16,0.8,0.68,0.84
-4.98E+02,-0.84,1.12,0.84,0.84
-4.98E+02,-0.88,0.64,0.44,0.44
-4.98E+02,-1.28,0.56,0.84,0.6
-4.98E+02,-1.2,0.8,0.84,0.52
-4.98E+02,-1.12,-0.16,-0.04,0.44
-4.98E+02,-0.24,-0.32,0.04,0.68
-4.98E+02,0,0.08,-0.84,1.64
-4.98E+02,0.4,1.2,-0.68,1.32
-4.98E+02,0.32,0.72,-0.2,1.24
-4.98E+02,-0.6,0,0.12,1.4
-4.98E+02,-0.8,0.16,0.04,1.08
-4.98E+02,-1.04,0.16,0.6,0.84
-4.98E+02,0.6,-0.16,0.36,0.6
-4.98E+02,1,-0.08,0.84,0.68
-4.98E+02,0.36,-0.16,-0.2,0.68
-4.98E+02,0.24,1.36,0.36,0.36
-4.98E+02,0.48,0.08,0.04,1
-4.98E+02,-0.56,-0.16,0.12,1.4
-4.98E+02,0.04,0.08,0.04,1
-4.98E+02,-0.32,-0.32,0.04,1
-4.98E+02,0.44,-0.56,0.2,1.72
-4.98E+02,1.8,0.16,-0.28,1.4
-4.98E+02,1.88,0.48,-0.44,0.6
-4.98E+02,1.04,-0.08,0.2,0.68
-4.98E+02,1.12,0,-0.28,0.44
-4.98E+02,-0.04,-1.12,-0.04,0.92
-4.98E+02,0.36,-0.32,-0.28,0.92
-4.98E+02,1,-0.72,0.04,0.76
-4.98E+02,1.04,-0.72,-0.04,0.76
-4.98E+02,-0.24,-0.24,-0.12,1.48
-4.98E+02,-0.28,0.56,-0.28,0.92
-4.98E+02,0.4,-0.08,0.36,0.6
-4.98E+02,-0.04,0,0.12,0.68
-4.98E+02,-0.04,0.24,0.2,0.36
-4.98E+02,-0.32,0.88,-0.28,0.68
-4.98E+02,-0.64,0.4,0.28,0.76
-4.98E+02,-0.16,0.64,-0.04,0.84
-4.98E+02,-0.64,0.72,-0.2,0.84
-4.98E+02,-1.56,0.16,-0.28,0.76
-4.98E+02,-0.32,-0.4,-0.12,1.08
-4.98E+02,0.56,-0.88,-0.52,1
-4.98E+02,0.16,0.16,-0.52,0.76
-4.98E+02,0.28,0.32,0.12,0.6
-4.98E+02,1,0,-0.36,0.84
-4.98E+02,-0.12,0.16,-0.6,0.76
-4.98E+02,-0.44,0.48,-0.76,0.76
-4.98E+02,-0.24,0,-0.2,1.16
-4.98E+02,-0.28,-0.88,-0.52,1.4
-4.98E+02,-0.24,-0.16,-0.04,1.16
-4.98E+02,-0.24,-0.24,-0.04,1.08
-4.98E+02,-0.04,0.4,0.36,0.92
-4.98E+02,0.16,-0.08,0.44,1.16
-4.98E+02,-0.92,0.24,0.2,1.16
-4.98E+02,-0.84,1.28,0.76,0.84
-4.98E+02,0.16,0.72,0.36,0.76
-4.98E+02,-0.2,0.32,0.36,1.08
-4.98E+02,-0.84,-0.32,0.6,1
-4.98E+02,-1.24,0,0.2,0.76
-4.98E+02,-0.48,-0.24,0.28,0.84
-4.98E+02,0.76,-0.4,0.76,1.24
-4.98E+02,0.28,-0.24,1.48,0.6
-4.97E+02,-0.52,0.24,1.08,1.16
-4.97E+02,-0.28,0.16,1.08,1.08
-4.97E+02,0.28,-0.08,-0.28,0.84
-4.97E+02,-0.36,0.8,-0.76,0.44
-4.97E+02,-0.2,-0.56,-0.04,0.6
-4.97E+02,0.24,-0.64,-0.52,0.76
-4.97E+02,0.08,0.72,-1.32,0.68
-4.97E+02,-0.48,0.96,-1.08,0.84
-4.97E+02,-1.28,0.56,-0.2,1.08
-4.97E+02,-0.56,-0.4,-0.12,1.16
-4.97E+02,0.04,-0.08,0.12,0.6
-4.97E+02,0.12,0.56,1.4,0.44
-4.97E+02,0.52,0.16,1.56,0.44
-4.97E+02,1.88,-0.32,1.72,0.2
-4.97E+02,1.64,-0.16,1.56,0.2
-4.97E+02,0.52,0.56,0.92,0.44
-4.97E+02,1.04,0.32,0.12,0.76
-4.97E+02,0.84,-0.8,-0.44,1.08
-4.97E+02,0.52,0.16,-0.44,0.52
-4.97E+02,0.24,0.8,-0.76,0.6
-4.97E+02,0.2,0.16,-0.92,0.92
-4.97E+02,0.16,0.32,-1.4,0.6
-4.97E+02,-0.24,0.24,-0.6,0.2
-4.97E+02,-0.2,0.48,0.12,0.44
-4.97E+02,1.04,1.04,-0.28,0.6
-4.97E+02,-0.32,0.48,0.12,0.76
-4.97E+02,-0.12,0.56,0.04,0.52
-4.97E+02,-0.36,0.48,0.6,0.76
-4.97E+02,1,0.24,0.12,0.36
-4.97E+02,-0.68,0.16,0.12,0.84
-4.97E+02,-1.12,0.72,-0.68,0.28
-4.97E+02,-0.4,0.24,0.12,-0.04
-4.97E+02,0.4,-0.72,-0.04,0.12
-4.97E+02,0.76,-1.12,-0.68,0.12
-4.97E+02,1.04,0.64,-0.04,0.12
-4.97E+02,1.48,1.2,0.28,0.44
-4.97E+02,1.04,0,0.12,0.92
-4.97E+02,1.24,0.48,0.44,0.44
-4.97E+02,-0.28,1.76,1,0.68
-4.97E+02,0.44,1.76,0.52,0.36
-4.97E+02,0.84,0.48,0.2,0.52
-4.97E+02,0.72,0.72,-0.44,0.68
-4.97E+02,0.6,1.12,0.12,0.28
-4.97E+02,2.04,1.04,0.44,0.04
-4.97E+02,1.44,-0.08,-0.36,-0.12
-4.97E+02,-0.16,-0.08,-0.28,0.28
-4.97E+02,0.16,-0.08,0.28,0.28
-4.97E+02,0.76,-0.56,0.36,0.28
-4.97E+02,0.2,-0.48,-0.6,0.28
-4.97E+02,0.84,-0.24,-0.52,0.44
-4.97E+02,0.24,-0.56,-0.52,0.52
-4.97E+02,0.56,-1.04,-0.12,0.52
-4.97E+02,-0.2,-1.04,-0.28,0.52
-4.97E+02,-0.56,0.32,0.36,0.36
-4.97E+02,0.24,0.16,-0.2,0.2
-4.97E+02,0.08,0.96,-0.12,0.44
-4.97E+02,-0.92,1.12,0.28,0.76
-4.97E+02,-0.64,1.52,0.2,0.2
-4.97E+02,-0.2,1.2,0.12,0.36
-4.97E+02,0.64,-0.08,0.44,0.44
-4.97E+02,0.28,0.16,0.44,0.12
-4.97E+02,0.04,0.48,0.12,0.04
-4.97E+02,1.4,-0.24,-0.2,0.36
-4.97E+02,0.68,-1.28,0.28,0.6
-4.97E+02,-0.04,0.4,-0.04,0.2
-4.97E+02,-1.04,-0.08,0.68,0.28
-4.97E+02,0.12,-0.24,0.44,0.44
-4.97E+02,-0.84,-1.28,-0.36,0.44
-4.97E+02,-1.28,-0.08,0.2,0.68
-4.97E+02,-0.04,0.08,-0.36,0.2
-4.97E+02,0.04,-1.12,-0.12,0.36
-4.97E+02,0.24,0,-0.6,-0.2
-4.97E+02,0.04,0.16,0.44,-0.12
-4.97E+02,0.8,-0.24,-0.12,0.12
-4.97E+02,0.2,0,-0.76,0.28
-4.97E+02,0.48,0.08,-0.92,-0.04
-4.97E+02,-0.6,-0.08,-0.12,0.2
-4.97E+02,-0.64,-0.96,0.2,0.36
-4.97E+02,-0.04,-0.48,-0.28,0.12
-4.97E+02,-1.56,-0.48,-0.28,0.68
-4.97E+02,-0.48,-0.56,0.12,0.6
-4.97E+02,1,-1.04,0.36,0.84
-4.97E+02,0.36,-1.2,0.76,0.68
-4.97E+02,-0.28,0.56,0.04,0.44
-4.97E+02,0,1.28,0.6,0.44
-4.97E+02,0.52,-0.16,1,0.04
-4.97E+02,0.68,-0.56,0.2,-0.2
-4.97E+02,-0.2,0.8,0.6,-0.28
-4.97E+02,-0.04,0.16,0.2,-0.12
-4.97E+02,0.88,-1.84,-0.2,0.36
-4.97E+02,0.64,-1.36,-0.68,0.36
-4.97E+02,0.64,0,-1,0.12
-4.97E+02,0.32,-0.64,-0.52,0.28
-4.97E+02,0.6,-1.84,-0.6,0.84
-4.97E+02,-0.36,-0.48,-0.2,0.6
-4.97E+02,-1.08,0.16,0.2,0.52
-4.97E+02,0.52,0,-0.36,0.44
-4.97E+02,-0.12,0.08,-0.52,0.36
-4.97E+02,-0.36,0.48,-0.12,0.36
-4.97E+02,0.88,0.64,-0.36,0.2
-4.96E+02,0.52,-0.64,0.84,0.28
-4.96E+02,1.64,-0.4,-0.12,-0.2
-4.96E+02,0.44,-0.48,-0.52,-0.04
-4.96E+02,0.28,-0.08,-0.36,0.44
-4.96E+02,0.6,-1.12,-0.44,-0.04
-4.96E+02,-0.04,-0.8,-0.52,0.28
-4.96E+02,0,0.16,-1.24,0.52
-4.96E+02,-0.72,0.56,0.04,0.28
-4.96E+02,0.92,0.24,-0.04,-0.12
-4.96E+02,-0.12,-0.24,-0.2,0.36
-4.96E+02,-1.52,0.32,0.04,0.28
-4.96E+02,-0.88,0.8,-0.2,0.2
-4.96E+02,-1.08,-0.24,0.04,0.28
-4.96E+02,-0.48,-0.32,-0.44,0.44
-4.96E+02,-0.96,0.4,0.12,0.12
-4.96E+02,-0.04,1.28,-0.04,0.12
-4.96E+02,0.76,0.8,-0.12,0.2
-4.96E+02,-0.12,0.48,0.04,0.28
-4.96E+02,-0.72,0.4,-0.84,0.44
-4.96E+02,-0.24,0,-0.92,0.2
-4.96E+02,-0.4,-0.72,-1.16,0.6
-4.96E+02,0.28,-0.08,-0.2,0.6
-4.96E+02,0.24,-0.08,-0.2,0.52
-4.96E+02,0.4,-0.8,-0.6,0.44
-4.96E+02,0.44,-0.64,-0.44,0.36
-4.96E+02,0.32,-0.48,-0.12,0.2
-4.96E+02,0.56,-0.4,0.04,0.28
-4.96E+02,1.08,-0.64,-0.52,0.28
-4.96E+02,0.16,0.48,-0.28,0.52
-4.96E+02,0,0.56,-0.52,0.36
-4.96E+02,0.36,1.2,-0.44,0.2
-4.96E+02,-0.08,1.04,0.04,0.2
-4.96E+02,-0.92,0.72,-0.28,0.52
-4.96E+02,-0.88,1.12,0.12,0.68
-4.96E+02,0.08,0.48,0.68,0.84
-4.96E+02,0,0.16,0.76,0.6
-4.96E+02,-0.16,0,0.36,0.6
-4.96E+02,-0.12,0,0.6,0.92
-4.96E+02,0.84,-0.16,0.28,0.44
-4.96E+02,1.04,-0.24,0.52,0.76
-4.96E+02,0.8,-0.56,0.28,0.28
-4.96E+02,0.04,-0.16,0.2,0.36
-4.96E+02,0.92,0.08,0.44,0.36
-4.96E+02,0.8,-0.4,0.12,1
-4.96E+02,-0.32,0,-0.36,0.44
-4.96E+02,-0.16,0.88,-0.2,0.28
-4.96E+02,0.16,0,-0.84,0.52
-4.96E+02,0.08,0.16,-1.16,0.52
-4.96E+02,-0.4,0.96,-0.92,0.2
-4.96E+02,-0.52,0.16,-0.28,0.2
-4.96E+02,0.04,0.4,-0.36,0.28
-4.96E+02,-0.2,0.8,0.52,0.36
-4.96E+02,-0.32,0.88,1.16,0.52
-4.96E+02,0.2,1.44,0.76,1.16
-4.96E+02,0.16,0.56,1.16,1
-4.96E+02,-0.16,0.4,1.24,1
-4.96E+02,-0.44,0.4,1.16,1
-4.96E+02,-0.36,-0.32,2.12,1.16
-4.96E+02,-0.32,-0.72,1.48,1.16
-4.96E+02,0.04,0.48,1.48,0.52
-4.96E+02,0.44,0.48,0.6,0.52
-4.96E+02,0.24,0.32,0.28,0.92
-4.96E+02,0.16,-0.24,-0.12,0.84
-4.96E+02,-0.84,0,-0.36,1.08
-4.96E+02,-0.92,0.16,-0.84,0.6
-4.96E+02,-0.2,-0.56,-1.4,1.24
-4.96E+02,0.64,-0.64,-1.48,1.48
-4.96E+02,1,0.4,-1.24,1
-4.96E+02,-0.44,0,-0.92,1
-4.96E+02,-0.2,-0.16,-0.12,0.68
-4.96E+02,0.12,-0.24,0.12,0.6
-4.96E+02,-0.6,0.4,-0.2,0.76
-4.96E+02,-0.36,0.08,1.16,0.68
-4.96E+02,0,-0.08,0.84,1
-4.96E+02,-0.44,-0.24,0.92,1.16
-4.96E+02,0.28,0.48,0.68,1.16
-4.96E+02,1.28,0.32,1,0.92
-4.96E+02,1.2,0.08,1.16,0.68
-4.96E+02,0.24,0.08,0.52,0.6
-4.96E+02,-0.92,0.64,0.6,0.52
-4.96E+02,-0.4,0.64,0.68,0.52
-4.96E+02,0.08,-0.08,-0.12,0.92
-4.96E+02,-0.12,0.4,0.04,0.44
-4.96E+02,0.04,0.72,-0.44,0.44
-4.96E+02,0,-0.08,-0.6,0.68
-4.96E+02,0.04,0.24,-0.44,0.92
-4.96E+02,-0.88,0.96,-0.6,1.24
-4.96E+02,-1.52,0.72,-0.76,0.92
-4.96E+02,-0.28,0.24,-1.56,0.92
-4.96E+02,-0.32,-0.16,-1.4,1.16
-4.96E+02,-0.16,0.48,-0.76,0.76
-4.96E+02,0.32,0.56,-0.2,0.76
-4.96E+02,0.12,-0.4,-0.2,1
-4.96E+02,0.64,0.08,-0.52,0.6
-4.96E+02,0,-0.72,0.44,0.92
-4.96E+02,-0.28,0.48,-0.04,1
-4.96E+02,-0.04,-0.08,0.36,1.08
-4.96E+02,0,-0.24,1.08,1.08
-4.96E+02,-0.2,1.04,0.12,0.84
-4.96E+02,-0.08,0.88,1.08,0.92
-4.95E+02,1,0.24,1.48,0.6
-4.95E+02,0.24,-1.04,1.56,0.92
-4.95E+02,0.16,-0.16,1.48,0.68
-4.95E+02,0.64,-0.24,1.16,0.68
-4.95E+02,1.24,-0.4,0.92,0.68
-4.95E+02,1.68,0.16,0.2,0.52
-4.95E+02,0.52,-0.16,-0.84,0.92
-4.95E+02,0.52,-0.08,-1.08,0.36
-4.95E+02,0.72,-0.08,-1.64,0.44
-4.95E+02,0.32,-0.08,-1.72,0.52
-4.95E+02,-0.04,0.16,-0.84,0.6
-4.95E+02,-0.04,-1.36,-0.28,1.08
-4.95E+02,1.08,-1.12,-0.28,0.92
-4.95E+02,1.4,-1.28,0.28,0.52
-4.95E+02,0.6,-0.24,0.2,0.44
-4.95E+02,0.12,-0.56,0.12,1
-4.95E+02,-0.04,0.08,0.6,0.68
-4.95E+02,-1.04,0.72,0.04,0.2
-4.95E+02,-0.92,0.96,0.76,0.44
-4.95E+02,0.48,0.4,0.36,0.2
-4.95E+02,0.04,0,0.84,0.68
-4.95E+02,0.2,0.8,0.68,0.76
-4.95E+02,0.08,0.32,0.76,0.84
-4.95E+02,-0.2,-0.56,0.04,0.68
-4.95E+02,0,-0.32,-0.28,0.68
-4.95E+02,0.16,0.4,-0.6,0.6
-4.95E+02,1.28,0.08,-0.52,0.36
-4.95E+02,1,0.16,-0.44,0.2
-4.95E+02,-1.28,0.48,-0.12,0.6
-4.95E+02,-1.68,0.56,-0.76,0.36
-4.95E+02,0.56,0.48,0.36,0.2
-4.95E+02,1.92,-0.56,-0.52,0.36
-4.95E+02,0.64,-0.56,-0.36,0.6
-4.95E+02,0.08,0.32,-0.84,0.12
-4.95E+02,-0.2,0,-0.6,0.84
-4.95E+02,1.36,0.08,-1,0.12
-4.95E+02,1.4,0.48,-0.68,0.04
-4.95E+02,0.12,0.64,-0.68,0.04
-4.95E+02,0.4,0.08,-0.12,0.28
-4.95E+02,0.32,0.56,-1,0.6
-4.95E+02,-0.12,0.72,0.12,0.76
-4.95E+02,0.6,-0.08,0.84,0.84
-4.95E+02,0.4,0.08,0.28,0.28
-4.95E+02,0.2,0.64,0.04,0.2
-4.95E+02,0.24,0.48,-0.2,0.28
-4.95E+02,0.72,0.72,1.16,0.44
-4.95E+02,0.84,0,0.68,0.28
-4.95E+02,0.32,0,0.44,0.36
-4.95E+02,-0.12,0.96,0.92,0.36
-4.95E+02,-0.04,0.24,-0.28,0.12
-4.95E+02,0.08,-0.32,0.6,0.6
-4.95E+02,0.44,-0.08,-0.6,0.6
-4.95E+02,-1.52,0,-0.36,0.84
-4.95E+02,0.6,0,0.2,0.44
-4.95E+02,1.16,-0.48,0.36,0.68
-4.95E+02,0.24,0.64,0.2,0.28
-4.95E+02,-0.48,0.72,0.92,0.36
-4.95E+02,-0.68,-0.56,0.04,0.52
-4.95E+02,-0.68,-0.48,-0.28,0.52
-4.95E+02,0.04,0.24,-0.12,0.28
-4.95E+02,-1.12,0.24,0.2,0.44
-4.95E+02,-0.36,-0.32,0.2,0.68
-4.95E+02,-0.76,-0.08,0.12,0.6
-4.95E+02,-0.84,1.36,0.04,0.04
-4.95E+02,-0.68,0.08,0.44,0.44
-4.95E+02,-0.2,-0.8,0.36,0.68
-4.95E+02,0.44,-0.72,-0.6,0.44
-4.95E+02,-0.44,0.08,-0.28,0.52
-4.95E+02,0.24,0.24,0.92,0.2
-4.95E+02,0.88,-1.04,1.16,0.76
-4.95E+02,-0.04,-0.08,0.52,0.36
-4.95E+02,-0.04,0.48,1,0.36
-4.95E+02,0.6,-0.24,0.92,0.36
-4.95E+02,0.24,-1.2,0.44,0.44
-4.95E+02,0.32,0.4,0.68,0.44
-4.95E+02,-0.04,-0.32,0.04,0.76
-4.95E+02,0.44,-0.4,0.2,0.2
-4.95E+02,0.88,-0.08,0.12,0.84
-4.95E+02,0.28,-0.8,-0.52,0.76
-4.95E+02,0.28,-0.08,-0.76,0.6
-4.95E+02,0.72,-0.24,-0.76,0.44
-4.95E+02,0.48,0.08,-0.76,0.44
-4.95E+02,0.04,1.44,-0.28,-0.28
-4.95E+02,-1.36,2,1.4,0.52
-4.95E+02,-0.52,0.88,0.84,0.04
-4.95E+02,-0.96,0.16,0.76,0.52
-4.95E+02,-0.64,0.88,0.44,0.44
-4.95E+02,-0.32,0.4,0.68,0.6
-4.95E+02,0.52,-0.24,0.28,0.6
-4.95E+02,1.12,-0.08,-0.04,0.52
-4.95E+02,0.12,0.56,0.04,0.28
-4.95E+02,-0.2,0.56,0.36,0.36
-4.95E+02,0.6,-0.56,0.28,0.52
-4.95E+02,0.16,-0.72,0.28,0.36
-4.95E+02,-1.24,0.16,0.2,0.44
-4.95E+02,0.28,0.96,0.12,0.2
-4.95E+02,0.64,-0.24,0.6,0.6
-4.95E+02,-0.04,0.32,0.36,0.2
-4.95E+02,0.04,1.04,0.36,-0.12
-4.95E+02,0,0.16,-0.04,-0.2
-4.94E+02,-0.4,-0.08,0.2,0.6
-4.94E+02,-0.68,0.56,-1,-0.04
-4.94E+02,0.04,0.4,-0.68,0.2
-4.94E+02,0.56,-0.08,0.28,0.6
-4.94E+02,0.72,-0.32,-0.44,0.6
-4.94E+02,0.56,0.56,-1.4,0.28
-4.94E+02,-1.12,0.72,-0.44,0.28
-4.94E+02,-0.12,0,-0.04,0.04
-4.94E+02,0.24,-0.8,0.12,0.44
-4.94E+02,0.4,-0.08,-0.2,0.52
-4.94E+02,0.96,0.32,-0.44,0.36
-4.94E+02,0.4,0.4,0.6,0.84
-4.94E+02,0.72,-0.08,0.28,0.04
-4.94E+02,-1.04,-0.08,0.68,0.04
-4.94E+02,-0.44,-0.08,1,0.52
-4.94E+02,-0.04,-1.28,1.08,0.6
-4.94E+02,0.04,-0.8,0.44,0.76
-4.94E+02,0.4,0.48,0.36,0.84
-4.94E+02,0.52,0.24,0.76,0.44
-4.94E+02,0.48,0.24,0.76,0.28
-4.94E+02,-0.64,0,0.92,0.6
-4.94E+02,-0.56,0.64,0.28,0.2
-4.94E+02,-0.28,0,0.28,0.52
-4.94E+02,-0.32,-0.16,0.04,0.52
-4.94E+02,0,0.24,-0.04,0.28
-4.94E+02,1.12,0,-0.12,-0.2
-4.94E+02,0.36,-0.16,-0.6,-0.04
-4.94E+02,0.48,0.08,-1.4,0.04
-4.94E+02,-0.08,0.32,-1.16,0.04
-4.94E+02,0.08,0.08,-0.68,0.36
-4.94E+02,0.28,-0.88,-0.2,0.52
-4.94E+02,0.4,-0.24,0.12,0.6
-4.94E+02,0.64,-0.16,-0.04,0.28
-4.94E+02,0.2,0.08,-0.2,0.12
-4.94E+02,1.08,-1.04,0.84,0.44
-4.94E+02,0.44,-0.72,0.68,0.44
-4.94E+02,0.36,0.16,-0.2,0.28
-4.94E+02,0.36,0.4,-0.28,0.2
-4.94E+02,0.64,-1.36,-0.04,0.68
-4.94E+02,0.08,-0.48,-1.56,0.36
-4.94E+02,-0.52,0.8,-1.08,0.28
-4.94E+02,-0.44,0.56,-1.16,0.6
-4.94E+02,-0.2,0,-0.44,0.36
-4.94E+02,0.32,0.16,-1.08,-0.04
-4.94E+02,-0.28,0.96,-0.12,-0.04
-4.94E+02,-0.32,-0.24,0.28,0.44
-4.94E+02,-0.04,-1.04,0.84,0.44
-4.94E+02,-0.16,0.08,0.36,0.04
-4.94E+02,-0.84,1.28,-0.12,0.52
-4.94E+02,-0.32,0.32,0.2,0.68
-4.94E+02,0.16,-0.08,-0.68,1.08
-4.94E+02,-0.92,1.76,-1,0.76
-4.94E+02,-0.28,2.08,-0.68,0.28
-4.94E+02,0.12,0.24,-1.08,0.04
-4.94E+02,-0.64,-0.32,-0.2,0.2
-4.94E+02,0.2,0.56,-0.6,-0.04
-4.94E+02,-0.04,0.24,0.2,0.52
-4.94E+02,0.72,-0.24,0.44,0.84
-4.94E+02,0.24,0.24,-0.12,1.16
-4.94E+02,-0.76,1.6,0.76,0.84
-4.94E+02,-0.44,0.24,1.16,0.68
-4.94E+02,-0.8,-0.08,1.8,1.24
-4.94E+02,-0.08,0.72,0.84,1.16
-4.94E+02,0.04,0.96,0.12,0.6
-4.94E+02,0.52,0.24,-0.04,0.52
-4.94E+02,1.36,0.16,0.2,0.2
-4.94E+02,0.68,0.32,0.68,0.12
-4.94E+02,-0.04,0.4,-0.52,0.28
-4.94E+02,-0.56,-0.32,-0.6,0.68
-4.94E+02,-0.16,-0.08,-1.16,0.76
-4.94E+02,-1.68,0.48,-0.92,1.56
-4.94E+02,-0.8,0.4,-0.84,1
-4.94E+02,0.12,-0.64,-0.44,1.16
-4.94E+02,0.68,-0.08,-0.92,0.68
-4.94E+02,-0.04,0.64,-0.28,0.52
-4.94E+02,-0.28,0.32,0.52,0.44
-4.94E+02,-0.28,-0.56,0.36,0.6
-4.94E+02,-1.08,-0.16,0.12,0.84
-4.94E+02,-0.84,-0.32,-0.76,0.6
-4.94E+02,-1,-0.8,-0.04,1.16
-4.94E+02,0.08,-1.12,-0.12,1.48
-4.94E+02,0.48,0.16,-0.76,1.16
-4.94E+02,0.12,0.48,-0.12,1.24
-4.94E+02,0.4,-0.32,0.36,0.92
-4.94E+02,0.72,-0.72,0.84,0.92
-4.94E+02,0.08,-0.96,0.84,1
-4.94E+02,-0.68,-1.28,1.24,0.76
-4.94E+02,0.52,-0.08,0.2,0.76
-4.94E+02,0.68,-1.12,0.2,0.92
-4.94E+02,-0.64,-0.16,0.68,0.84
-4.94E+02,-0.28,0.32,-0.12,0.44
-4.94E+02,0.84,-0.56,-0.28,0.68
-4.94E+02,0.52,-0.88,-0.68,0.92
-4.94E+02,-0.44,-0.08,-0.36,1.16
-4.94E+02,-0.76,-0.4,0.04,1.08
-4.94E+02,0.28,-0.56,-0.6,1.24
-4.94E+02,0.56,0,-0.36,1
-4.94E+02,-0.44,0.32,-0.2,1.08
-4.94E+02,-0.8,1.12,0.6,0.92
-4.94E+02,0.04,0.72,-0.2,0.76
-4.93E+02,-0.48,-0.16,0.2,1.08
-4.93E+02,-0.68,0.32,0.36,0.84
-4.93E+02,-1.12,0.88,0.2,0.92
-4.93E+02,0.2,0.72,0.68,0.68
-4.93E+02,0.48,0.24,-0.2,0.76
-4.93E+02,-0.88,1.04,0.2,0.92
-4.93E+02,-0.4,0.24,1.08,1
-4.93E+02,0.2,-0.4,-0.2,0.92
