DataFiles/tekcsv/tek0013ALL.csv

Model,DPO4034
Firmware Version,2.58

Waveform Type,Analog,Analog,Analog,Analog
Point Format,ENV,,,
Horizontal Units,s,,,
Horizontal Scale,100,,,
Horizontal Delay,0,0,0,0
Sample Interval,0.01,,,
Record Length,100000,,,
Gating,0.0% to 100.0%,0.0% to 100.0%,0.0% to 100.0%,0.0% to 100.0%
Probe Attenuation,1,1,1,1
Vertical Units,V,V,V,V
Vertical Offset,0,0,0,0
Vertical Scale,1,2,2,2
Vertical Position,0,2.04,-2.02,-4.02
Label,,,,
TIME,CH1,CH2,CH3,CH4
-5.00000e+02,0.72,-3.76,0.76,0.12
-4.99990e+02,0.2,-3.84,1.32,-0.28
-4.99980e+02,-0.56,-3.28,1.24,-0.28
-4.99970e+02,-0.52,-4.88,1.24,0.52
-4.99960e+02,-0.28,-4.16,0.12,-0.04
-4.99950e+02,-0.28,-3.2,0.76,0.28
-4.99940e+02,0,-3.92,0.92,0.44
-4.99930e+02,0.08,-3.92,0.6,-0.2
-4.99920e+02,-0.4,-3.04,-0.04,-0.04
-4.99910e+02,-0.16,-3.44,-0.52,0.28
-4.99900e+02,0.36,-3.76,-0.84,0.28
-4.99890e+02,-0.4,-3.12,-1.16,0.04
-4.99880e+02,-0.8,-3.12,-0.76,0.04
-4.99870e+02,0.16,-3.6,-0.28,-0.04
-4.99860e+02,0.08,-3.6,0.6,0.12
-4.99850e+02,-0.32,-3.12,1.08,-0.6
-4.99840e+02,0.48,-3.12,1.56,-0.44
-4.99830e+02,0.52,-4.16,1.96,-0.28
-4.99820e+02,-0.24,-4.48,1.96,0.04
-4.99810e+02,-0.36,-4.4,1.24,0.44
-4.99800e+02,0.04,-4.72,0.12,0.52
-4.99790e+02,-0.04,-4.56,-0.2,0.84
-4.99780e+02,0.32,-3.68,-0.04,0.36
-4.99770e+02,1,-3.2,0.04,0.04
-4.99760e+02,0.6,-3.84,-0.2,-0.28
-4.99750e+02,-0.04,-3.84,-0.76,-0.6
-4.99740e+02,0.76,-4.08,-1.48,-0.36
-4.99730e+02,0.16,-4.24,-1.48,-0.12
-4.99720e+02,-0.48,-4.24,-1.88,-0.12
-4.99710e+02,0.2,-4.56,-1.4,0.28
-4.99700e+02,0.36,-4.88,-0.84,0.44
-4.99690e+02,0.52,-4.32,-0.44,0.2
-4.99680e+02,0.28,-4.24,0.28,0.12
-4.99670e+02,0.24,-3.92,0.84,0.44
-4.99660e+02,0.4,-3.68,0.68,0.12
-4.99650e+02,-0.28,-3.04,0.84,0.28
-4.99640e+02,-0.84,-3.92,1.08,0.44
-4.99630e+02,0.44,-3.52,1,0.2
-4.99620e+02,0.28,-4,1.48,-0.12
-4.99610e+02,0.24,-3.92,1.56,0.28
-4.99600e+02,0.88,-4,0.92,0.28
-4.99590e+02,-0.04,-4.16,0.28,0.52
-4.99580e+02,-0.12,-3.68,0.2,0.2
-4.99570e+02,0.72,-4.08,-0.2,0.04
-4.99560e+02,0.48,-4.88,0.44,0.44
-4.99550e+02,0.32,-4,0.6,0.12
-4.99540e+02,0.44,-4.64,0.2,0.28
-4.99530e+02,1.28,-4.32,0.28,0.28
-4.99520e+02,0,-3.52,0.6,0.04
-4.99510e+02,-1.08,-3.36,0.76,0.44
-4.99500e+02,0.24,-3.44,0.28,-0.12
-4.99490e+02,-1.4,-4.32,-0.28,0.44
-4.99480e+02,-1.52,-4.16,0.04,0.28
-4.99470e+02,-0.08,-4.32,-0.2,0.44
-4.99460e+02,0.2,-4.72,-0.12,0.92
-4.99450e+02,0.24,-3.84,0.28,0.52
-4.99440e+02,-0.12,-3.6,1.4,0.76
-4.99430e+02,0.6,-3.92,0.84,0.12
-4.99420e+02,-0.28,-4,0.76,-0.12
-4.99410e+02,-0.32,-3.04,1.24,-0.2
-4.99400e+02,0.24,-4.4,0.44,0.2
-4.99390e+02,0.04,-4.64,0.28,0.04
-4.99380e+02,-0.04,-4.16,-0.68,-0.36
-4.99370e+02,0.48,-3.52,-0.2,-0.04
-4.99360e+02,0.8,-3.68,0.12,0.52
-4.99350e+02,0.16,-4.32,0.12,0.76
-4.99340e+02,0.2,-3.76,0.04,0.84
-4.99330e+02,0.2,-4.24,-0.04,0.6
-4.99320e+02,-0.6,-4.16,0.52,0.52
-4.99310e+02,-0.4,-3.92,0.28,0.12
-4.99300e+02,0.24,-4.64,0.52,0.44
-4.99290e+02,0.96,-4.16,-0.04,0.04
-4.99280e+02,0.36,-3.92,0.12,-0.12
-4.99270e+02,0.36,-4.4,0.04,0.28
-4.99260e+02,-0.68,-4.16,0.6,0.36
-4.99250e+02,-1.32,-5.28,0.6,0.04
-4.99240e+02,-0.8,-4.32,-0.28,0.44
-4.99230e+02,0.2,-4.32,-0.04,0.2
-4.99220e+02,-0.32,-3.6,1,0.36
-4.99210e+02,0.36,-3.68,0.68,0.6
-4.99200e+02,0.8,-3.36,0.2,0.6
-4.99190e+02,0.64,-3.92,0.2,0.28
-4.99180e+02,-0.16,-3.92,0.12,0.28
-4.99170e+02,-0.04,-4.48,-0.12,0.2
-4.99160e+02,-0.08,-5.12,-0.68,0.04
-4.99150e+02,0.04,-3.52,-0.36,-0.12
-4.99140e+02,0.36,-3.12,-0.52,0.44
-4.99130e+02,0.64,-4,-0.52,0.76
-4.99120e+02,0.4,-3.76,-1.16,0.6
-4.99110e+02,0.04,-3.12,-0.92,0.6
-4.99100e+02,-0.44,-4.08,-0.52,1.16
-4.99090e+02,-0.64,-4,0.36,0.68
-4.99080e+02,-0.2,-3.36,-0.92,-0.04
-4.99070e+02,-0.52,-3.36,-0.12,0.44
-4.99060e+02,0.4,-4,0.44,0.04
-4.99050e+02,-0.84,-4.16,0.6,0.12
-4.99040e+02,-0.2,-4.08,-0.12,0.44
-4.99030e+02,0.56,-4,0.6,0.12
-4.99020e+02,-0.16,-4,0.28,0.2
-4.99010e+02,-0.2,-4,-0.2,0.28
-4.99000e+02,0.76,-4.32,-0.52,0.28
-4.98990e+02,1.36,-4.88,-0.44,0.2
-4.98980e+02,0,-4.08,-0.2,0.28
-4.98970e+02,-0.2,-3.76,0.84,0.76
-4.98960e+02,-0.52,-4.24,0.36,0.76
-4.98950e+02,-0.64,-4.64,-0.52,0.6
-4.98940e+02,-0.84,-4.48,-0.12,0.36
-4.98930e+02,0.64,-4.4,-0.84,0.52
-4.98920e+02,-0.56,-4.88,0.04,0.92
-4.98910e+02,-0.56,-3.36,-0.04,0.36
-4.98900e+02,-0.92,-3.12,-0.04,0.28
-4.98890e+02,-0.24,-3.68,-0.52,-0.12
-4.98880e+02,-0.76,-4,-0.52,0.28
-4.98870e+02,0.04,-4.88,-0.12,0.44
-4.98860e+02,1.28,-5.2,-0.52,0.36
-4.98850e+02,0.24,-4.64,-0.68,0.28
-4.98840e+02,1.04,-4.24,-0.68,0.52
-4.98830e+02,1.2,-5.12,-0.92,1.16
-4.98820e+02,-0.12,-4.96,0.12,0.76
-4.98810e+02,-0.76,-3.92,-0.28,0.52
-4.98800e+02,-1.4,-4.16,0.68,0.84
-4.98790e+02,-0.92,-4,0.04,0.36
-4.98780e+02,-0.44,-3.6,0.6,0.52
-4.98770e+02,-0.28,-4,1,0.92
-4.98760e+02,-0.4,-4,0.6,0.36
-4.98750e+02,-0.56,-3.28,0.6,-0.28
-4.98740e+02,0.24,-4.24,0.6,0.36
-4.98730e+02,0.6,-4,-0.52,0.6
-4.98720e+02,-0.32,-3.6,0.2,0.92
-4.98710e+02,-0.76,-4.4,0.28,1.08
-4.98700e+02,-0.32,-4.16,0.2,1.16
-4.98690e+02,0.28,-4.16,-0.84,0.52
-4.98680e+02,0.04,-3.12,0.04,0.76
-4.98670e+02,1.36,-4.32,-0.04,0.6
-4.98660e+02,0.76,-4.64,-0.52,0.44
-4.98650e+02,-0.28,-3.36,-0.36,0.04
-4.98640e+02,0,-4.16,0.04,0.44
-4.98630e+02,0,-4.08,0.12,0.44
-4.98620e+02,0.6,-4.8,0.12,1
-4.98610e+02,0,-4,0.52,0.2
-4.98600e+02,0.64,-3.04,0.68,0.84
-4.98590e+02,0,-4.16,0.92,0.92
-4.98580e+02,-1.52,-3.36,0.84,1
-4.98570e+02,-0.36,-3.68,0.12,0.6
-4.98560e+02,-0.08,-3.52,0.2,0.52
-4.98550e+02,0,-3.36,0.76,0.12
-4.98540e+02,0.68,-3.68,0.84,0.28
-4.98530e+02,0.16,-3.92,0.6,0.76
-4.98520e+02,-0.28,-3.04,0.76,0.36
-4.98510e+02,-0.24,-3.36,0.84,0.36
-4.98500e+02,-0.52,-4.16,0.44,0.92
-4.98490e+02,0.4,-4,0.04,0.52
-4.98480e+02,0.68,-3.92,-0.2,0.44
-4.98470e+02,-0.52,-3.52,0.2,0.52
-4.98460e+02,0.44,-2.96,-0.84,0.2
-4.98450e+02,-1.2,-3.68,-0.04,0.44
-4.98440e+02,0.04,-3.12,-0.28,0.28
-4.98430e+02,0.76,-4,-0.28,0.6
-4.98420e+02,-0.04,-4.72,0.44,1
-4.98410e+02,0.4,-3.12,0.2,0.04
-4.98400e+02,0.32,-3.92,0.52,0.84
-4.98390e+02,0.96,-4,0.12,0.12
-4.98380e+02,0,-3.6,-0.44,-0.28
-4.98370e+02,0.04,-4.4,0.04,0.04
-4.98360e+02,0,-4.4,-0.12,0.04
-4.98350e+02,-0.04,-4.48,-0.44,0.52
-4.98340e+02,-0.68,-4.64,-0.04,0.04
-4.98330e+02,0.6,-3.76,-0.04,0.04
-4.98320e+02,0.24,-4.4,0.28,0.28
-4.98310e+02,-0.48,-4.16,-0.36,0.2
-4.98300e+02,-0.6,-4.16,-0.04,0.2
-4.98290e+02,0.08,-4.64,-0.12,0.36
-4.98280e+02,-0.32,-4.24,-0.68,0.2
-4.98270e+02,-0.4,-3.2,-0.92,0.36
-4.98260e+02,0.24,-4.16,-0.52,0.28
-4.98250e+02,0.2,-4.08,-0.04,0.04
-4.98240e+02,-0.72,-4.08,-0.44,0.28
-4.98230e+02,0.12,-3.84,-0.04,0.12
-4.98220e+02,0.28,-3.92,-0.2,-0.12
-4.98210e+02,-0.24,-4.24,-0.12,0.04
-4.98200e+02,0.56,-4.16,0.52,0.2
-4.98190e+02,-0.16,-4.64,0.44,0.44
-4.98180e+02,-0.52,-3.6,0.44,-0.6
-4.98170e+02,0.08,-4.88,0.84,-0.2
-4.98160e+02,0.48,-4.16,0.52,-0.28
-4.98150e+02,-0.64,-4.16,-0.12,-0.04
-4.98140e+02,-1,-3.76,-0.2,0.36
-4.98130e+02,0.12,-3.52,0.04,0.12
-4.98120e+02,0.24,-4.16,-1.16,-0.12
-4.98110e+02,-0.56,-3.52,-0.76,-0.12
-4.98100e+02,0.36,-3.52,0.04,-0.36
-4.98090e+02,0.32,-4.08,-0.52,-0.2
-4.98080e+02,0.44,-4.16,-0.44,-0.2
-4.98070e+02,1.24,-4.16,-0.92,-0.12
-4.98060e+02,1.04,-4.72,-1.16,0.44
-4.98050e+02,1.36,-4.16,-1.72,-0.04
-4.98040e+02,0.6,-4.24,-0.76,0.04
-4.98030e+02,0.2,-4.88,-0.04,-0.12
-4.98020e+02,0.32,-5.04,-0.36,-0.36
-4.98010e+02,0.2,-3.68,0.04,-0.2
-4.98000e+02,0.64,-4.08,-0.44,-0.36
-4.97990e+02,-0.56,-3.76,-0.12,0.2
-4.97980e+02,-0.28,-3.52,-0.12,0.2
-4.97970e+02,-0.08,-3.28,-0.84,0.2
-4.97960e+02,-0.48,-3.52,-0.6,0.52
-4.97950e+02,1.16,-4.16,-0.68,-0.84
-4.97940e+02,0.52,-4.32,0.12,-0.6
-4.97930e+02,0.16,-4.4,0.84,-0.28
-4.97920e+02,0.36,-4,0.92,-0.36
-4.97910e+02,0.52,-3.76,0.28,-0.76
-4.97900e+02,-0.04,-4.56,0.28,0.36
-4.97890e+02,-0.12,-3.52,0.36,0.2
-4.97880e+02,-0.68,-3.36,0.28,-0.36
-4.97870e+02,-1.12,-3.52,0.52,0.2
-4.97860e+02,-0.52,-4,-0.52,0.12
-4.97850e+02,-0.64,-3.84,-0.28,-0.28
-4.97840e+02,-0.32,-4.24,-0.52,-0.12
-4.97830e+02,0.16,-4.56,0.12,0.28
-4.97820e+02,1.28,-4.32,-0.28,-0.36
-4.97810e+02,0.52,-3.92,0.12,-0.2
-4.97800e+02,0.48,-4.08,0.2,-0.04
-4.97790e+02,1.04,-4.16,-0.28,-0.2
-4.97780e+02,0.04,-3.92,0.12,-0.44
-4.97770e+02,-0.44,-3.6,0.44,0.04
-4.97760e+02,-0.12,-4.56,-0.04,0.2
-4.97750e+02,-0.12,-4.56,-0.2,0.44
-4.97740e+02,-0.4,-2.96,0.36,0.36
-4.97730e+02,0.24,-3.76,-0.44,-0.04
-4.97720e+02,-0.24,-3.76,0.04,0.28
-4.97710e+02,-0.24,-3.68,0.12,-0.36
-4.97700e+02,-0.56,-4.08,-0.6,0.28
-4.97690e+02,-0.12,-3.12,0.28,0.12
-4.97680e+02,0.56,-4,0.12,0.12
-4.97670e+02,0.08,-3.52,-0.36,-0.04
-4.97660e+02,-0.92,-3.6,0.36,0.44
-4.97650e+02,0.44,-4.16,-0.92,0.2
-4.97640e+02,-0.4,-4.48,-0.28,0.36
-4.97630e+02,0.28,-3.12,-0.2,0.2
-4.97620e+02,0.84,-4.56,-0.2,-0.04
-4.97610e+02,-0.16,-4.64,1,0.04
-4.97600e+02,1.32,-4.64,0.04,-0.2
-4.97590e+02,1.04,-4,1.08,0.28
-4.97580e+02,1.2,-4.32,0.76,-0.12
-4.97570e+02,-0.16,-4.64,0.28,0.2
-4.97560e+02,0.04,-4.48,1.08,0.84
-4.97550e+02,0.72,-4,0.84,0.28
-4.97540e+02,0.36,-3.68,0.6,0.28
-4.97530e+02,0.4,-3.6,0.52,0.2
-4.97520e+02,0.08,-4.56,0.12,-0.2
-4.97510e+02,-0.56,-3.6,0.12,0.04
-4.97500e+02,0.4,-4.72,0.12,0.28
-4.97490e+02,0.76,-5.2,0.44,0.52
-4.97480e+02,-0.2,-4.16,0.12,0.44
-4.97470e+02,-0.72,-3.28,-0.28,0.36
-4.97460e+02,-0.12,-3.68,0.28,0.44
-4.97450e+02,-0.84,-4.16,-0.84,0.76
-4.97440e+02,-0.76,-3.52,-1.08,0.28
-4.97430e+02,0.04,-4.08,0.12,0.52
-4.97420e+02,0.08,-4.4,0.84,0.28
-4.97410e+02,-0.8,-3.52,0.6,0.2
-4.97400e+02,-0.32,-4.24,0.84,0.68
-4.97390e+02,-0.32,-4.88,0.52,0.68
-4.97380e+02,-0.04,-4.88,-0.28,0.52
-4.97370e+02,0.12,-4.4,-0.92,0.52
-4.97360e+02,0.44,-4.48,-0.84,0.36
-4.97350e+02,0.48,-4.56,-0.28,0.28
-4.97340e+02,0.48,-3.2,-0.28,-0.04
-4.97330e+02,0.16,-3.28,0.84,0.36
-4.97320e+02,-0.08,-4,0.6,0.28
-4.97310e+02,-1.08,-3.28,0.52,0.44
-4.97300e+02,-0.84,-3.6,0.12,0.12
-4.97290e+02,-0.76,-4.4,0.68,0.68
-4.97280e+02,-0.36,-4.48,0.12,0.2
-4.97270e+02,-0.2,-3.92,0.12,0.12
-4.97260e+02,0.36,-4.48,-0.44,0.52
-4.97250e+02,0.72,-4.72,-0.12,0.92
-4.97240e+02,0.8,-3.36,-0.44,-0.12
-4.97230e+02,-0.04,-4.48,-0.04,0.28
-4.97220e+02,-0.72,-4.08,0.36,0.28
-4.97210e+02,-0.6,-4.56,0.44,-0.12
-4.97200e+02,-0.68,-4.32,0.36,0.6
-4.97190e+02,0,-4.32,-0.28,0.36
-4.97180e+02,-1.12,-4.24,-0.36,0.52
-4.97170e+02,-1.12,-3.6,0.12,0.6
-4.97160e+02,0.64,-3.92,0.04,0.2
-4.97150e+02,0.48,-4.48,0.04,-0.12
-4.97140e+02,-0.52,-4.64,-0.2,0.2
-4.97130e+02,-0.12,-3.92,-0.12,0.2
-4.97120e+02,0.04,-4.48,-0.52,0.44
-4.97110e+02,-0.2,-4.16,-1.16,0.28
-4.97100e+02,0.4,-3.84,-1.16,0.6
-4.97090e+02,0.52,-4.4,-0.68,0.92
-4.97080e+02,0.12,-3.92,-0.28,0.52
-4.97070e+02,-0.36,-4.08,-0.6,0.52
-4.97060e+02,0.52,-3.6,-0.04,0.6
-4.97050e+02,-0.12,-4.32,0.04,0.52
-4.97040e+02,-0.24,-4.24,0.76,0.44
-4.97030e+02,0.32,-4.32,0.2,0.28
-4.97020e+02,-0.08,-3.04,0.84,0.28
-4.97010e+02,-0.28,-3.92,0.84,0.44
-4.97000e+02,-0.12,-4.4,0.84,0.6
-4.96990e+02,0.32,-4.72,1,0.68
-4.96980e+02,0.48,-4.4,0.6,0.44
-4.96970e+02,-0.08,-4.4,0.12,0.28
-4.96960e+02,-0.72,-4.24,0.76,1
-4.96950e+02,-0.48,-4.56,0.28,1.08
-4.96940e+02,-0.32,-3.6,0.2,0.28
-4.96930e+02,-0.56,-3.2,-0.12,0.6
-4.96920e+02,-0.24,-3.36,-0.12,0.76
-4.96910e+02,-0.76,-4.08,0.6,0.52
-4.96900e+02,-0.72,-4.56,0.52,0.68
-4.96890e+02,-0.12,-4.48,0.36,0.68
-4.96880e+02,0.28,-4.72,1.16,0.28
-4.96870e+02,0.32,-3.76,0.6,-0.2
-4.96860e+02,0.84,-4.32,0.04,0.2
-4.96850e+02,-0.52,-4.88,-0.28,0.28
-4.96840e+02,-1.04,-4.64,0.12,0.36
-4.96830e+02,-0.04,-4.72,-0.2,0.52
-4.96820e+02,0.16,-4.64,-0.92,1
-4.96810e+02,0.16,-3.36,-0.36,0.44
-4.96800e+02,0.04,-3.68,0.28,0.2
-4.96790e+02,-0.32,-3.68,0.44,0.76
-4.96780e+02,0.84,-4.4,-0.04,0.36
-4.96770e+02,-0.6,-3.84,0.52,0.52
-4.96760e+02,0.4,-3.04,-0.04,0.28
-4.96750e+02,0.96,-3.92,0.28,0.12
-4.96740e+02,-0.6,-3.84,0.52,0.44
-4.96730e+02,0.28,-4,0.6,0.36
-4.96720e+02,0.56,-5.36,0.12,0.52
-4.96710e+02,-0.4,-5.2,0.12,0.92
-4.96700e+02,-0.04,-4.08,-0.04,0.52
-4.96690e+02,0.52,-3.68,0.36,0.52
-4.96680e+02,-0.08,-4.56,-0.2,0.6
-4.96670e+02,-0.4,-3.68,0.2,0.76
-4.96660e+02,0.04,-3.92,0.2,0.6
-4.96650e+02,-0.16,-4.16,0.04,0.28
-4.96640e+02,-0.08,-4.16,0.2,0.28
-4.96630e+02,-0.52,-4.64,1.08,0.44
-4.96620e+02,-0.92,-4.4,0.36,0.52
-4.96610e+02,-1.08,-4.16,0.2,0.44
-4.96600e+02,-0.6,-4.64,-0.28,0.84
-4.96590e+02,0,-4.08,-0.84,0.76
-4.96580e+02,-0.48,-2.96,-0.68,0.44
-4.96570e+02,-1,-3.36,-0.44,0.68
-4.96560e+02,-1.68,-3.84,-0.44,1
-4.96550e+02,-1.2,-3.92,-0.76,0.52
-4.96540e+02,-0.6,-2.72,0.28,0.52
-4.96530e+02,-0.12,-3.6,0.44,0.6
-4.96520e+02,0.88,-3.76,0.04,0.44
-4.96510e+02,-0.28,-4.16,0.2,0.2
-4.96500e+02,-0.4,-3.68,-0.68,-0.12
-4.96490e+02,0.24,-4.32,-0.84,1
-4.96480e+02,0.48,-4.32,-1.08,0.68
-4.96470e+02,-1.16,-3.52,-0.52,0.92
-4.96460e+02,-0.84,-3.2,-0.12,1.32
-4.96450e+02,-0.04,-3.44,1,0.76
-4.96440e+02,-0.12,-4.56,1.32,0.76
-4.96430e+02,0.4,-3.36,0.68,0.52
-4.96420e+02,0.64,-3.6,0.52,0.44
-4.96410e+02,0.08,-3.92,0.28,0.28
-4.96400e+02,-0.04,-3.2,0.28,0.12
-4.96390e+02,-0.12,-2.8,1,0.12
-4.96380e+02,-0.36,-3.44,0.44,-0.12
-4.96370e+02,-1.64,-3.6,1.16,0.52
-4.96360e+02,-0.8,-3.52,0.84,0.68
-4.96350e+02,-0.16,-3.92,0.28,0.92
-4.96340e+02,0.32,-4,0.12,0.76
-4.96330e+02,1.04,-4.16,-0.12,0.76
-4.96320e+02,0.48,-4.08,-0.6,0.52
-4.96310e+02,0.68,-4,-1.32,0.2
-4.96300e+02,0.4,-3.84,-1.8,0.36
-4.96290e+02,0.84,-3.92,-1.56,0.6
-4.96280e+02,0.4,-4.16,-0.84,0.68
-4.96270e+02,-0.52,-3.76,-1,0.76
-4.96260e+02,-0.16,-3.68,-0.84,0.92
-4.96250e+02,-0.36,-4.56,-0.84,0.6
-4.96240e+02,-0.8,-4.4,0.28,0.52
-4.96230e+02,0.84,-4.08,0.6,0.52
-4.96220e+02,0.68,-4.8,0.6,0.92
-4.96210e+02,-0.64,-3.84,0.04,0.36
-4.96200e+02,-0.28,-3.84,0.28,0.44
-4.96190e+02,0.52,-3.76,0.6,0.6
-4.96180e+02,-0.24,-4.64,0.6,0.76
-4.96170e+02,-0.84,-4.08,0.36,0.52
-4.96160e+02,0.16,-4.32,0.04,0.6
-4.96150e+02,-0.4,-5.52,-0.04,0.44
-4.96140e+02,-1.44,-4.48,-0.28,0.28
-4.96130e+02,-1,-4.88,0.12,0.68
-4.96120e+02,0.4,-4.4,-0.44,0.2
-4.96110e+02,0.52,-5.36,-0.12,0.04
-4.96100e+02,0.16,-4.4,-1.08,0.36
-4.96090e+02,0.24,-4.4,-0.92,0.6
-4.96080e+02,0.12,-5.52,-0.84,0.76
-4.96070e+02,0,-4.96,-0.28,0.12
-4.96060e+02,0.6,-5.28,-0.2,0.12
-4.96050e+02,0.2,-5.52,0.6,0.44
-4.96040e+02,-0.04,-4.32,0.2,0.2
-4.96030e+02,-0.2,-4.16,1.08,0.12
-4.96020e+02,-0.24,-4.24,0.84,0.36
-4.96010e+02,-0.8,-4.88,1.16,0.52
-4.96000e+02,-0.8,-4.56,1,0.68
-4.95990e+02,-0.04,-5.04,0.52,0.68
-4.95980e+02,1.08,-4.32,0.52,0.2
-4.95970e+02,0.84,-4.08,1.32,0.2
-4.95960e+02,0.24,-4.4,0.6,0.44
-4.95950e+02,-0.04,-4.56,-0.28,0.52
-4.95940e+02,-0.44,-4.24,-0.28,0.12
-4.95930e+02,-0.24,-4.64,-0.36,0.36
-4.95920e+02,0.48,-4.64,-0.04,0.28
-4.95910e+02,0.6,-3.28,-0.44,-0.28
-4.95900e+02,-0.56,-4.32,-0.52,0.2
-4.95890e+02,0.6,-4.16,-1.08,-0.04
-4.95880e+02,1.44,-4.8,0.12,-0.12
-4.95870e+02,1.04,-4.56,-0.68,0.04
-4.95860e+02,1.24,-4.4,-1,0.28
-4.95850e+02,0.8,-4.16,-0.52,0.36
-4.95840e+02,0.28,-3.76,-1.24,-0.12
-4.95830e+02,-0.36,-3.84,-0.52,0.28
-4.95820e+02,0.28,-4.48,-0.12,0.2
-4.95810e+02,0.28,-3.6,-1.16,-0.2
-4.95800e+02,-0.4,-3.2,-0.2,0.28
-4.95790e+02,1.16,-3.68,-0.04,0.28
-4.95780e+02,1.28,-4.48,-0.44,-0.12
-4.95770e+02,0,-3.92,-0.52,-0.28
-4.95760e+02,-0.76,-4.08,0.04,0.28
-4.95750e+02,0.72,-4.4,-1.16,-0.2
-4.95740e+02,0.84,-4.16,-0.84,-0.12
-4.95730e+02,-0.36,-3.6,-1.16,0.04
-4.95720e+02,0.28,-3.44,-0.44,0.04
-4.95710e+02,0.04,-4,0.04,-0.04
-4.95700e+02,-0.68,-3.28,1,0.04
-4.95690e+02,-1.04,-4,0.68,0.52
-4.95680e+02,-0.64,-4.16,-0.52,-0.12
-4.95670e+02,-1.16,-4.32,0.84,0.12
-4.95660e+02,-0.6,-3.6,0.76,0.36
-4.95650e+02,-0.12,-3.76,-0.2,0.2
-4.95640e+02,-0.04,-4.16,0.68,0.04
-4.95630e+02,0.32,-3.44,-0.28,-0.28
-4.95620e+02,0.04,-2.64,-0.04,-0.2
-4.95610e+02,0.8,-3.92,-0.36,-0.28
-4.95600e+02,-0.28,-3.92,0.52,0.04
-4.95590e+02,-0.08,-3.6,-0.68,-0.12
-4.95580e+02,-0.56,-4.4,-0.28,0.44
-4.95570e+02,-0.24,-4.4,-0.92,0.36
-4.95560e+02,0.4,-4.56,-0.84,0.36
-4.95550e+02,0.4,-3.44,-1.24,0.28
-4.95540e+02,0.24,-3.6,-0.84,0.2
-4.95530e+02,-0.04,-4.64,-0.52,0.2
-4.95520e+02,0.12,-3.84,-0.52,0.2
-4.95510e+02,-0.8,-4.24,0.44,-0.04
-4.95500e+02,-1.24,-4.08,-0.04,0.2
-4.95490e+02,-0.72,-4.48,1.16,0.52
-4.95480e+02,0.44,-4.08,0.28,0.2
-4.95470e+02,-1,-2.96,0.44,0.52
-4.95460e+02,-0.16,-3.52,-0.28,0.12
-4.95450e+02,0.08,-4.08,0.28,0.36
-4.95440e+02,-0.6,-4.48,-0.12,0.44
-4.95430e+02,-0.8,-4.32,0.36,0.28
-4.95420e+02,-0.04,-5.36,-0.28,0.52
-4.95410e+02,0.48,-5.36,-0.28,0.44
-4.95400e+02,0.2,-4.4,0.2,-0.2
-4.95390e+02,0.52,-4.4,0.92,0.04
-4.95380e+02,1.32,-4.16,1.4,-0.12
-4.95370e+02,0.56,-4.64,1.4,-0.2
-4.95360e+02,0.36,-4.16,0.44,-0.04
-4.95350e+02,-0.32,-4.72,0.2,0.2
-4.95340e+02,0,-4.8,-0.12,0.12
-4.95330e+02,-0.24,-4.24,-0.2,0.28
-4.95320e+02,-0.4,-4.64,0.04,0.6
-4.95310e+02,0.96,-4.88,-1.08,0.6
-4.95300e+02,0,-4.72,-0.6,0.52
-4.95290e+02,-0.16,-4.64,-0.44,0.76
-4.95280e+02,0.84,-4.24,-1.08,0.6
-4.95270e+02,0.56,-4.08,-0.44,0.28
-4.95260e+02,0.68,-4.48,-0.52,-0.04
-4.95250e+02,-0.36,-4.96,-0.44,0.12
-4.95240e+02,-0.16,-3.36,-0.68,-0.2
-4.95230e+02,0.28,-4,-0.2,0.2
-4.95220e+02,0.24,-4.4,0.04,0.52
-4.95210e+02,0.84,-4.16,-0.28,0.28
-4.95200e+02,-0.68,-4.16,0.6,0.28
-4.95190e+02,-0.04,-3.2,-0.44,0.12
-4.95180e+02,1.04,-3.12,0.2,0.12
-4.95170e+02,-0.52,-3.92,0.04,0.52
-4.95160e+02,-0.8,-3.12,0.2,0.44
-4.95150e+02,-0.8,-2.72,0.76,0.76
-4.95140e+02,0.76,-3.12,0.04,0.36
-4.95130e+02,-0.52,-3.36,1.48,0.52
-4.95120e+02,0.36,-2.72,-0.28,0.12
-4.95110e+02,-0.92,-3.84,0.68,0.2
-4.95100e+02,-0.92,-3.84,1,0.12
-4.95090e+02,-1.16,-4.4,1,0.44
-4.95080e+02,0,-3.68,0.76,0.44
-4.95070e+02,0.2,-3.6,0.36,0.36
-4.95060e+02,0.48,-3.44,-0.12,0.52
-4.95050e+02,0.04,-4.16,-0.12,0.76
-4.95040e+02,-0.08,-4.16,-1.64,0.44
-4.95030e+02,-1.4,-4,-1.16,0.84
-4.95020e+02,-0.24,-5.36,-0.28,0.68
-4.95010e+02,0.6,-5.52,-0.28,0.52
-4.95000e+02,0.44,-4.64,0.68,0.2
-4.94990e+02,0.4,-3.92,0.04,0.04
-4.94980e+02,-1.04,-4.08,1.64,0.52
-4.94970e+02,-0.32,-3.68,0.84,0.2
-4.94960e+02,-0.44,-3.28,1,0.44
-4.94950e+02,0.16,-3.28,-0.12,0.28
-4.94940e+02,-0.96,-4.32,-0.12,0.6
-4.94930e+02,-0.44,-3.76,-0.84,0.44
-4.94920e+02,0.44,-4.16,-0.2,0.76
-4.94910e+02,1.2,-4.08,0.04,0.68
-4.94900e+02,1.24,-4.24,0.2,0.12
-4.94890e+02,0.08,-3.68,1.32,0.04
-4.94880e+02,0.12,-5.28,1,0.28
-4.94870e+02,-0.84,-4.88,0.68,0.28
-4.94860e+02,-0.04,-4.8,0.92,0.36
-4.94850e+02,0.44,-4.48,0.76,0.84
-4.94840e+02,0.44,-4,0.12,0.68
-4.94830e+02,-0.28,-3.68,0.12,0.52
-4.94820e+02,-0.16,-2.88,0.52,0.6
-4.94810e+02,0.08,-4.4,0.12,0.04
-4.94800e+02,-0.88,-4.16,0.6,-0.12
-4.94790e+02,-0.28,-3.84,-0.36,-0.12
-4.94780e+02,-0.4,-3.6,0.04,0.12
-4.94770e+02,0.12,-4.24,-0.12,0.28
-4.94760e+02,0.52,-3.68,-0.28,0.36
-4.94750e+02,0.4,-4.88,0.04,0.92
-4.94740e+02,0.36,-4.64,0.12,0.36
-4.94730e+02,0.12,-4.8,0.36,0.68
-4.94720e+02,0.04,-4.72,0.44,0.44
-4.94710e+02,0.64,-4.32,0.6,-0.04
-4.94700e+02,0.24,-3.92,0.52,-0.2
-4.94690e+02,-0.24,-4.16,-0.36,0.2
-4.94680e+02,0.2,-5.2,-0.28,0.2
-4.94670e+02,0.6,-4.56,-0.92,-0.04
-4.94660e+02,-0.04,-4.24,-0.76,0.44
-4.94650e+02,0.24,-4.32,-1,0.44
-4.94640e+02,-0.12,-3.84,-0.92,0.12
-4.94630e+02,-1.84,-3.6,-0.04,0.28
-4.94620e+02,-0.04,-3.52,-0.36,0.12
-4.94610e+02,-0.08,-3.6,-0.44,0.04
-4.94600e+02,-0.88,-3.36,0.36,0.12
-4.94590e+02,-0.52,-3.36,0.44,0.6
-4.94580e+02,-0.52,-3.2,-0.04,0.76
-4.94570e+02,-0.88,-3.36,0.44,0.92
-4.94560e+02,-0.6,-4.24,1.08,0.84
-4.94550e+02,-0.76,-4.88,0.92,0.84
-4.94540e+02,0.2,-4.08,0.92,0.36
-4.94530e+02,0.4,-3.44,0.2,0.04
-4.94520e+02,0.48,-2.88,0.84,-0.04
-4.94510e+02,0,-3.04,0.6,0.2
-4.94500e+02,-1.04,-3.84,0.2,0.36
-4.94490e+02,-1.16,-3.92,-0.28,0.6
-4.94480e+02,0.64,-3.76,-0.84,0.76
-4.94470e+02,0,-3.92,-0.04,0.84
-4.94460e+02,0.36,-2.96,-0.84,0.52
-4.94450e+02,0,-3.92,-0.6,0.92
-4.94440e+02,-0.08,-4.16,-0.84,0.52
-4.94430e+02,-0.04,-3.28,0.84,0.36
-4.94420e+02,0.12,-4.4,1,0.6
-4.94410e+02,0.48,-4.08,1.64,0.76
-4.94400e+02,0.36,-3.6,1.56,0.28
-4.94390e+02,-0.8,-3.92,1.64,0.6
-4.94380e+02,-0.32,-4.16,2.04,0.44
-4.94370e+02,0.12,-4.16,-0.2,-0.04
-4.94360e+02,0.36,-4.16,0.28,0.2
-4.94350e+02,1.36,-4.8,0.84,0.6
-4.94340e+02,1.08,-4.96,0.28,0.44
-4.94330e+02,-0.32,-4.24,0.68,1
-4.94320e+02,0.2,-4.4,0.04,0.76
-4.94310e+02,1.2,-5.6,-0.52,0.84
-4.94300e+02,0.32,-5.12,-0.68,0.6
-4.94290e+02,0.36,-4.16,-0.84,0.76
-4.94280e+02,0.12,-4.16,0.36,0.84
-4.94270e+02,1,-4,-0.92,-0.2
-4.94260e+02,0.04,-3.68,0.2,-0.12
